…
``` r
oct_mort_loc %>% filter(Pop.Type=="2023-survivor") # double checked none of these plants were actually alive (no data)
```

```
## # A tibble: 131 × 20
##    block bed     row col   unique.ID bud.date flower.date fruit.date
##    <chr> <chr> <dbl> <chr> <chr>     <chr>    <chr>       <chr>     
##  1 <NA>  A        45 B     IH_2_4    7/2/24   7/16/24     7/23/24   
##  2 <NA>  C        30 C     BH_4_7    6/25/24  7/9/24      7/16/24   
##  3 <NA>  D        51 C     IH_1_8    6/25/24  7/16/24     7/23/24   
##  4 <NA>  E        46 B     IH_3_11   7/2/24   7/30/24     8/6/24    
##  5 <NA>  A        17 A     BH_7_3    6/18/24  7/2/24      7/9/24    
##  6 <NA>  A        24 A     WL2_7_9   6/18/24  6/18/24     7/2/24    
##  7 <NA>  A        32 B     IH_7_4    6/18/24  7/9/24      7/16/24   
##  8 <NA>  A        35 A     SC_8_4    6/18/24  7/2/24      7/16/24   
##  9 <NA>  A        36 A     BH_3_4    6/18/24  7/9/24      7/16/24   
## 10 <NA>  A        39 B     WL2_7_10  6/18/24  6/18/24     7/2/24    
## # ℹ 121 more rows
## # ℹ 12 more variables: last.FL.date <chr>, last.FR.date <chr>,
## #   death.date <chr>, missing.date <chr>, survey.notes <chr>, Pop.Type <chr>,
## #   parent.pop <chr>, mf <dbl>, rep <dbl>, Lat <chr>, Long <chr>, elev_m <dbl>
```
…
## F1s


``` r
wl2_surv_F1 <- wl2_surv %>% 
  filter(Pop.Type=="F1") %>% 
  unite(Field_Loc, bed:col, sep="_") %>% 
  select(Pop.Type:parent.pop, Field_Loc, unique.ID:Surv_Post_Transplant, survey.notes) %>% 
  separate_wider_delim(parent.pop, " x ", names = c("maternal.pop", "paternal.pop"), cols_remove = FALSE) %>% 
  mutate(WL2.cross = if_else(maternal.pop=="WL2" | paternal.pop=="WL2", TRUE, FALSE))
wl2_surv_F1
```

```
## # A tibble: 103 × 11
##    Pop.Type maternal.pop paternal.pop parent.pop Field_Loc unique.ID death.date
##    <chr>    <chr>        <chr>        <chr>      <chr>     <chr>     <chr>     
##  1 F1       CC           TM2          CC x TM2   C_38_A    1362      6/18/24   
##  2 F1       BH           TM2          BH x TM2   C_17_D    600       6/18/24   
##  3 F1       LV1          WL2          LV1 x WL2  D_52_C    1271      6/18/24   
##  4 F1       LV1          TM2          LV1 x TM2  H_15_C    1246      6/18/24   
##  5 F1       TM2          WL2          TM2 x WL2  C_32_B    1279      6/25/24   
##  6 F1       WV           TM2          WV x TM2   C_49_B    201       6/25/24   
##  7 F1       LV1          TM2          LV1 x TM2  C_56_B    1241      6/25/24   
##  8 F1       LV1          TM2          LV1 x TM2  C_13_D    1245      6/25/24   
##  9 F1       LV1          TM2          LV1 x TM2  D_23_A    1231      6/25/24   
## 10 F1       TM2          WL2          TM2 x WL2  D_18_C    1281      6/25/24   
## # ℹ 93 more rows
## # ℹ 4 more variables: Surv_to_Oct <dbl>, Surv_Post_Transplant <dbl>,
## #   survey.notes <chr>, WL2.cross <lgl>
```
…
``` r
wl2_surv_F2 <- wl2_surv %>% 
  filter(Pop.Type=="F2") %>% 
  unite(Field_Loc, bed:col, sep="_") %>% 
  mutate(WL2.cross = if_else(str_detect(parent.pop, "WL2"), TRUE, FALSE)) %>% 
  select(WL2.cross, Pop.Type:parent.pop, Field_Loc, unique.ID:Surv_Post_Transplant, survey.notes) %>% 
  separate_wider_delim(parent.pop, ") x (", names = c("maternal.pops", "paternal.pops"), cols_remove = FALSE) %>%
  mutate(maternal.pops=str_remove(maternal.pops, "\\("), paternal.pops=str_remove(paternal.pops, "\\)")) 
wl2_surv_F2
```

```
## # A tibble: 435 × 11
##    WL2.cross Pop.Type maternal.pops paternal.pops parent.pop Field_Loc unique.ID
##    <lgl>     <chr>    <chr>         <chr>         <chr>      <chr>     <chr>    
##  1 TRUE      F2       WL2 x BH      WL2 x TM2     (WL2 x BH… C_28_C    251      
##  2 TRUE      F2       TM2 x WL2     SQ3 x WL2     (TM2 x WL… D_37_D    312      
##  3 TRUE      F2       WL2 x TM2     CC x TM2      (WL2 x TM… H_30_D    263      
##  4 TRUE      F2       WL2 x TM2     CC x TM2      (WL2 x TM… D_55_A    254      
##  5 TRUE      F2       WL1 x TM2     WL2 x TM2     (WL1 x TM… D_52_B    326      
##  6 TRUE      F2       WL1 x TM2     WL2 x TM2     (WL1 x TM… E_48_C    328      
##  7 TRUE      F2       TM2 x WL2     YO11 x WL2    (TM2 x WL… F_17_B    377      
##  8 TRUE      F2       TM2 x WL2     TM2           (TM2 x WL… C_28_B    347      
##  9 TRUE      F2       WL2 x DPR     TM2 x WL2     (WL2 x DP… C_42_A    1314     
## 10 TRUE      F2       WL2 x BH      SQ3 x WL2     (WL2 x BH… C_7_C     1172     
## # ℹ 425 more rows
## # ℹ 4 more variables: death.date <chr>, Surv_to_Oct <dbl>,
## #   Surv_Post_Transplant <dbl>, survey.notes <chr>
```

BC1s

``` r
wl2_surv_bc1 <- wl2_surv_F2 %>% 
  filter(WL2.cross=="TRUE") %>% 
  filter(paternal.pops=="WL2"|maternal.pops=="WL2")
wl2_surv_bc1
```

```
## # A tibble: 92 × 11
##    WL2.cross Pop.Type maternal.pops paternal.pops parent.pop Field_Loc unique.ID
##    <lgl>     <chr>    <chr>         <chr>         <chr>      <chr>     <chr>    
##  1 TRUE      F2       WL2 x DPR     WL2           (WL2 x DP… E_7_C     1103     
##  2 TRUE      F2       WL2           DPR x WL2     (WL2) x (… F_27_D    908      
##  3 TRUE      F2       SQ3 x WL2     WL2           (SQ3 x WL… C_3_D     87       
##  4 TRUE      F2       YO11 x WL2    WL2           (YO11 x W… C_16_D    932      
##  5 TRUE      F2       SQ3 x WL2     WL2           (SQ3 x WL… C_22_C    88       
##  6 TRUE      F2       YO11 x WL2    WL2           (YO11 x W… D_9_B     937      
##  7 TRUE      F2       WL2           DPR x WL2     (WL2) x (… E_41_D    904      
##  8 TRUE      F2       YO11 x WL2    WL2           (YO11 x W… E_44_D    940      
##  9 TRUE      F2       YO11 x WL2    WL2           (YO11 x W… F_9_C     930      
## 10 TRUE      F2       TM2 x WL2     WL2           (TM2 x WL… G_14_A    365      
## # ℹ 82 more rows
## # ℹ 4 more variables: death.date <chr>, Surv_to_Oct <dbl>,
## #   Surv_Post_Transplant <dbl>, survey.notes <chr>
```
…
```
## # A tibble: 398 × 25
##    WL2.cross Pop.Type Parent1 Parent2 maternal.pops Parent3 Parent4
##    <lgl>     <chr>    <chr>   <chr>   <chr>         <chr>   <chr>  
##  1 TRUE      F2       WL2     BH      WL2 x BH      WL2     TM2    
##  2 TRUE      F2       TM2     WL2     TM2 x WL2     SQ3     WL2    
##  3 TRUE      F2       WL2     TM2     WL2 x TM2     CC      TM2    
##  4 TRUE      F2       WL2     TM2     WL2 x TM2     CC      TM2    
##  5 TRUE      F2       WL1     TM2     WL1 x TM2     WL2     TM2    
##  6 TRUE      F2       WL1     TM2     WL1 x TM2     WL2     TM2    
##  7 TRUE      F2       TM2     WL2     TM2 x WL2     YO11    WL2    
##  8 TRUE      F2       TM2     WL2     TM2 x WL2     TM2     <NA>   
##  9 TRUE      F2       WL2     DPR     WL2 x DPR     TM2     WL2    
## 10 TRUE      F2       WL2     BH      WL2 x BH      SQ3     WL2    
## # ℹ 388 more rows
## # ℹ 18 more variables: paternal.pops <chr>, parent.pop <chr>, Field_Loc <chr>,
## #   unique.ID <chr>, death.date <chr>, Surv_to_Oct <dbl>,
## #   Surv_Post_Transplant <dbl>, survey.notes <chr>, totalParents <dbl>,
## #   prop.WL2 <dbl>, prop.CC <dbl>, prop.BH <dbl>, prop.WV <dbl>,
## #   prop.LV1 <dbl>, prop.TM2 <dbl>, prop.SQ3 <dbl>, prop.DPR <dbl>,
## #   prop.YO11 <dbl>
```
…
