…
```
## `summarise()` has grouped output by 'pop'. You can override using the `.groups`
## argument.
```

```r
by_pop %>% arrange(mort)
```

```
## # A tibble: 98 × 5
## # Groups:   pop [92]
##    pop                       Pop.Type       Alive  Dead  mort
##    <chr>                     <chr>          <int> <int> <dbl>
##  1 (DPR x WL2) x (DPR x WL2) F2                 1     0     0
##  2 (TM2 x WL2) x (DPR x WL2) F2                 1     0     0
##  3 (WL2 x TM2) x (WL2)       F2                 1     0     0
##  4 (WV x WL2) x (WL2 x DPR)  F2                 2     0     0
##  5 Buffer                    <NA>               5     0     0
##  6 SQ1                       2023-survivor      1     0     0
##  7 TM2                       2023-TM2-fruit    24     0     0
##  8 WL2                       2023-survivor      6     0     0
##  9 WR                        2023-survivor      1     0     0
## 10 buffer                    <NA>               1     0     0
## # ℹ 88 more rows
```
…
