…
``` r
ann_cens_2025 %>% filter(!is.na(survey.date)) #92 plants with annual census data 
```

```
## # A tibble: 92 × 14
##    bed     row col   Unique.ID phen  total.branch diam.mm num.flw num.fruit
##    <chr> <dbl> <chr> <chr>     <chr>        <dbl>   <dbl>   <dbl>     <dbl>
##  1 C        21 B     698       P                1    2.89       0        30
##  2 C        24 B     118       P                1    1.78       0        27
##  3 C        25 B     1459      P                1    3.1        0        24
##  4 C        28 B     2557      P                1    1.72       0         1
##  5 C        30 B     341       P                1    3.4        0        20
##  6 C        31 A     1228      P                1    2.38       0        25
##  7 C        33 B     183       P                1    1.81       0         1
##  8 C        37 B     1289      P                1    1.72       0         4
##  9 C        43 A     73        P                1    1.58       0        12
## 10 C        50 B     404       P                1    2.57       0        12
## # ℹ 82 more rows
## # ℹ 5 more variables: long.fruit.cm <dbl>, survey.date <chr>,
## #   collected.date <chr>, survey.notes <chr>, ...14 <chr>
```
…
