…
```
## `summarise()` has grouped output by 'Pop.Type', 'pop.id', 'dame_pop',
## 'sire_pop', 'dame_elev'. You can override using the `.groups` argument.
```

``` r
parent_F1s_surv_summary
```

```
## # A tibble: 25 × 9
## # Groups:   Pop.Type, pop.id, dame_pop, sire_pop, dame_elev [25]
##    Pop.Type pop.id    dame_pop sire_pop dame_elev meanElev     n mean_Y1Surv
##    <chr>    <chr>     <chr>    <chr>        <dbl>    <dbl> <int>       <dbl>
##  1 F1       BH x WL2  BH       WL2           511.    1266.    14       0.643
##  2 F1       DPR x WL2 DPR      WL2          1019.    1519.    10       0.6  
##  3 F1       LV1 x WL2 LV1      WL2          2593.    2307.     9       0.667
##  4 F1       SQ3 x WL2 SQ3      WL2          2373.    2197.     7       0.714
##  5 F1       TM2 x WL2 TM2      WL2           379.    1200.    14       0.714
##  6 F1       WL1 x WL2 WL1      WL2          1614.    1817.    13       0.692
##  7 F1       WL2 x CC  WL2      CC           2020.    1167.     2       0.5  
##  8 F1       WL2 x DPR WL2      DPR          2020.    1519.     7       0.714
##  9 F1       WL2 x LV1 WL2      LV1          2020.    2307.    11       0.636
## 10 F1       WL2 x SQ3 WL2      SQ3          2020.    2197.     1       1    
## # ℹ 15 more rows
## # ℹ 1 more variable: stdev_Y1Surv <dbl>
```
…
```
## Joining with `by = join_by(pop.id)`
```

``` r
mid_parent_F1s_y1surv <- parent_F1s_surv_summary %>% 
   filter(Pop.Type=="F1") %>% 
  bind_rows(parent_prep_y1surv) %>% 
  mutate(elevation.group=if_else(meanElev>2000, "All High", "Mixed"))
mid_parent_F1s_y1surv
```

```
## # A tibble: 30 × 10
## # Groups:   Pop.Type, pop.id, dame_pop, sire_pop, dame_elev [30]
##    Pop.Type pop.id    dame_pop sire_pop dame_elev meanElev     n mean_Y1Surv
##    <chr>    <chr>     <chr>    <chr>        <dbl>    <dbl> <int>       <dbl>
##  1 F1       BH x WL2  BH       WL2           511.    1266.    14       0.643
##  2 F1       DPR x WL2 DPR      WL2          1019.    1519.    10       0.6  
##  3 F1       LV1 x WL2 LV1      WL2          2593.    2307.     9       0.667
##  4 F1       SQ3 x WL2 SQ3      WL2          2373.    2197.     7       0.714
##  5 F1       TM2 x WL2 TM2      WL2           379.    1200.    14       0.714
##  6 F1       WL1 x WL2 WL1      WL2          1614.    1817.    13       0.692
##  7 F1       WL2 x CC  WL2      CC           2020.    1167.     2       0.5  
##  8 F1       WL2 x DPR WL2      DPR          2020.    1519.     7       0.714
##  9 F1       WL2 x LV1 WL2      LV1          2020.    2307.    11       0.636
## 10 F1       WL2 x SQ3 WL2      SQ3          2020.    2197.     1       1    
## # ℹ 20 more rows
## # ℹ 2 more variables: stdev_Y1Surv <dbl>, elevation.group <chr>
```
…
