…
## Alive in Oct 2024

``` r
alive_oct <- wintmortpheno_pops %>% 
  filter(death.date=="5/23/25" | is.na(death.date)) %>% #keep only plants that died on 5/23 or don't have a death date yet 
  filter(is.na(missing.date)) %>%  #keep only plants without a missing date
  mutate(deadatplanting = if_else(is.na(survey.notes), NA,
                                  if_else(survey.notes=="Dead at planting", "Yes", NA))) %>% 
  filter(is.na(deadatplanting))
alive_oct 
```

```
## # A tibble: 132 × 16
##    bed     row col   unique.ID last.FR.date death.date missing.date survey.notes
##    <chr> <dbl> <chr> <chr>     <chr>        <chr>      <chr>        <chr>       
##  1 A        15 C     CC_1_3    9/24/24      5/23/25    <NA>         10/9 new fl…
##  2 A        17 D     BH_2_3    9/10/24      5/23/25    <NA>         8/27 main s…
##  3 A        22 D     SC_8_3    9/17/24      5/23/25    <NA>         7/16 some b…
##  4 A        46 D     SQ1_5_10  9/10/24      5/23/25    <NA>         7/16 some b…
##  5 B        22 A     IH_3_5    10/16/24     5/23/25    <NA>         10/9 still …
##  6 B        25 A     IH_6_5    10/23/24     5/23/25    <NA>         7/30 buds d…
##  7 C         5 B     317       <NA>         5/23/25    <NA>         <NA>        
##  8 C        20 B     698       <NA>         <NA>       <NA>         <NA>        
##  9 C        21 B     407       <NA>         5/23/25    <NA>         <NA>        
## 10 C        23 B     118       <NA>         <NA>       <NA>         <NA>        
## # ℹ 122 more rows
## # ℹ 8 more variables: Pop.Type <chr>, status <chr>, block <chr>, loc <chr>,
## #   pop <chr>, mf <dbl>, rep <dbl>, deadatplanting <chr>
```
…
## Winter Survival 

``` r
wintersurv <- alive_oct %>% 
  select(Pop.Type:loc, bed:col, pop:rep, unique.ID:death.date) %>% 
  mutate(WintSurv=if_else(is.na(death.date), 1, 0)) #1 = surv; 0 = mort
wintersurv
```

```
## # A tibble: 132 × 14
##    Pop.Type     status block loc   bed     row col   pop      mf   rep unique.ID
##    <chr>        <chr>  <chr> <chr> <chr> <dbl> <chr> <chr> <dbl> <dbl> <chr>    
##  1 2023-surviv… 2023-… <NA>  A_15… A        15 C     CC        1     3 CC_1_3   
##  2 2023-surviv… 2023-… <NA>  A_17… A        17 D     BH        2     3 BH_2_3   
##  3 2023-surviv… 2023-… <NA>  A_22… A        22 D     SC        8     3 SC_8_3   
##  4 2023-surviv… 2023-… <NA>  A_46… A        46 D     SQ1       5    10 SQ1_5_10 
##  5 2023-surviv… 2023-… <NA>  B_22… B        22 A     IH        3     5 IH_3_5   
##  6 2023-surviv… 2023-… <NA>  B_25… B        25 A     IH        6     5 IH_6_5   
##  7 F2           avail… A     C_5_B C         5 B     (TM2…    NA    13 317      
##  8 F2           avail… B     C_20… C        20 B     (DPR…    NA     4 698      
##  9 Parent       avail… B     C_21… C        21 B     BH       NA    21 407      
## 10 Parent       avail… B     C_23… C        23 B     WL2      NA    23 118      
## # ℹ 122 more rows
## # ℹ 3 more variables: last.FR.date <chr>, death.date <chr>, WintSurv <dbl>
```
…
