…
``` r
surv_2024 %>% filter(unique.ID=="buffer") #check for buffers
```

```
## # A tibble: 127 × 13
##    block bed     row col   unique.ID bud.date flower.date fruit.date
##    <chr> <chr> <dbl> <chr> <chr>     <chr>    <chr>       <chr>     
##  1 A     C         1 A     buffer    <NA>     <NA>        <NA>      
##  2 A     C         1 B     buffer    <NA>     <NA>        <NA>      
##  3 A     C         2 A     buffer    <NA>     <NA>        <NA>      
##  4 A     C         2 B     buffer    <NA>     <NA>        <NA>      
##  5 A     C         3 A     buffer    <NA>     <NA>        <NA>      
##  6 A     C         3 B     buffer    <NA>     <NA>        <NA>      
##  7 D     C        59 A     buffer    <NA>     <NA>        <NA>      
##  8 D     C        59 B     buffer    <NA>     <NA>        <NA>      
##  9 D     C        60 A     buffer    <NA>     <NA>        <NA>      
## 10 D     C        60 B     buffer    <NA>     <NA>        <NA>      
## # ℹ 117 more rows
## # ℹ 5 more variables: last.FL.date <chr>, last.FR.date <chr>, death.date <chr>,
## #   missing.date <chr>, survey.notes <chr>
```
…
